[gd_scene load_steps=2 format=3 uid="uid://n20fvpx3wf3i"]

[sub_resource type="RectangleShape2D" id="RectangleShape2D_i2kc0"]
size = Vector2(21.5187, 16.2078)

[node name="placeholder_platform" type="StaticBody2D"]

[node name="CollisionShape2D" type="CollisionShape2D" parent="."]
scale = Vector2(79.665, 10.0671)
shape = SubResource("RectangleShape2D_i2kc0")
one_way_collision = true
