[gd_scene load_steps=3 format=3 uid="uid://d0tljnukfg3tf"]

[ext_resource type="Script" path="res://game/player/roninguim/window_wall.gd" id="1_8yb31"]

[sub_resource type="SegmentShape2D" id="SegmentShape2D_h3ths"]
resource_local_to_scene = true
b = Vector2(300, 0)

[node name="StaticBody2D" type="StaticBody2D"]
script = ExtResource("1_8yb31")

[node name="Rect" type="MarginContainer" parent="."]
unique_name_in_owner = true
offset_top = -5.0
offset_right = 300.0
offset_bottom = 5.0

[node name="ColorRect" type="ColorRect" parent="Rect"]
layout_mode = 2
color = Color(1, 0, 0, 0.478431)

[node name="Box" type="CollisionShape2D" parent="."]
unique_name_in_owner = true
shape = SubResource("SegmentShape2D_h3ths")
debug_color = Color(0.960784, 0, 0.521569, 0.419608)

[node name="RayCast2D" type="RayCast2D" parent="."]
unique_name_in_owner = true
rotation = 3.14159
enabled = false

[node name="Area2D" type="Area2D" parent="."]
collision_layer = 0

[node name="CollisionShape2D" type="CollisionShape2D" parent="Area2D"]
visible = false
shape = SubResource("SegmentShape2D_h3ths")
debug_color = Color(1, 1, 0.701961, 0.419608)

[connection signal="area_entered" from="Area2D" to="." method="_on_area_2d_area_entered"]
