[gd_scene load_steps=2 format=3 uid="uid://bkpy1kh1j273d"]

[ext_resource type="Script" path="res://game/combat/attack/attacks/simple_attack.gd" id="1_e7t3b"]

[node name="SimpleAttack" type="Node2D" groups=["HIT"]]
script = ExtResource("1_e7t3b")
