[gd_scene load_steps=2 format=3 uid="uid://itg0imlm6hew"]

[ext_resource type="PackedScene" uid="uid://vs6kqnxipc8w" path="res://plugins/lobby/api/lobby_api.tscn" id="1_6a4p3"]

[node name="LobbyAPI" instance=ExtResource("1_6a4p3")]
server_port = 5672
validate_certificate = false
